{
  "name": "brain-bert-train",
  "configFiles": [
    {
      "dir": "etc",
      "mappings": [
        {
          "template": "brain-bert-train.conf.in",
          "useReserved": true
        }
      ]
    },
    {
      "dir": "etc/supervisor/conf.d",
      "mappings": [
        {
          "template": "brain-bert-train.conf.in"
        }
      ]
    }
  ],
  "variables": [
    {
      "variable": "LOGS_DIR",
      "description": "logs directory",
      "default_value": "${MAUM_ROOT}/logs"
    },
    {
      "variable": "BRAIN_BERT_PORT",
      "description": "brain bert port",
      "default_value": "50000"
    },
    {
      "variable": "BRAIN_BERT_TRAINER_PORT",
      "description": "brain bert trainer port",
      "default_value": "55000"
    }
  ]
}
